{
  "errors": {
    "400": {
      "hits": 219,
      "paths": {}
    },
    "404": {
      "hits": 576,
      "paths": {}
    }
  },
  "firstProcessedDate": "2021-10-05T06:27:58+00:00",
  "hits": 3419,
  "hitsPerCountry": {
    "-": 243,
    "CN": 247,
    "GB": 383,
    "JP": 184,
    "NL": 244,
    "US": 1542
  },
  "hitsPerLanguage": {
    "?": 3287,
    "en": 132
  },
  "lastProcessedDate": "2021-10-10T23:57:31+00:00",
  "paths": {
    "/": {
      "hits": 491
    },
    "/android-free/repository/": {
      "hits": 1627,
      "hitsPerCountry": {
        "GB": 368,
        "JP": 179,
        "NL": 220,
        "US": 599
      }
    },
    "/robots.txt": {
      "hits": 316
    }
  },
  "queries": {
    "": {
      "hits": 262,
      "hitsPerLanguage": {
        "?": 130,
        "en": 132
      }
    }
  },
  "weekStartDate": "2021-10-04T00:00:00+00:00"
}