{
  "errors": {
    "400": {
      "hits": 199,
      "paths": {}
    },
    "404": {
      "hits": 2282,
      "paths": {
        "/.well-known/pki-validation/ca3-5de9ca9bedbc4b9394043ead14bc99e1.txt": 136,
        "/index.php": 113
      }
    }
  },
  "firstProcessedDate": "2021-11-30T06:27:37+00:00",
  "hits": 5234,
  "hitsPerCountry": {
    "-": 372,
    "DE": 1747,
    "FR": 118,
    "GB": 383,
    "ID": 133,
    "JP": 168,
    "NL": 222,
    "US": 1706
  },
  "hitsPerLanguage": {
    "?": 5102,
    "en": 132
  },
  "lastProcessedDate": "2021-12-05T23:57:27+00:00",
  "paths": {
    "/": {
      "hits": 639
    },
    "/android-free/repository/": {
      "hits": 1637,
      "hitsPerCountry": {
        "GB": 352,
        "JP": 162,
        "NL": 213,
        "US": 628
      }
    },
    "/robots.txt": {
      "hits": 112
    }
  },
  "queries": {
    "": {
      "hits": 945,
      "hitsPerCountry": {
        "DE": 743,
        "ID": 132
      },
      "hitsPerLanguage": {
        "?": 813,
        "en": 132
      }
    }
  },
  "weekStartDate": "2021-11-29T00:00:00+00:00"
}