{
  "errors": {
    "400": {
      "hits": 139,
      "paths": {}
    },
    "404": {
      "hits": 410,
      "paths": {}
    }
  },
  "firstProcessedDate": "2021-02-01T00:02:31+00:00",
  "hits": 3460,
  "hitsPerCountry": {
    "-": 281,
    "GB": 381,
    "JP": 154,
    "NL": 243,
    "US": 1567
  },
  "lastProcessedDate": "2021-02-07T23:57:15+00:00",
  "paths": {
    "/": {
      "hits": 363
    },
    "/android-free/repository/": {
      "hits": 2103,
      "hitsPerCountry": {
        "GB": 348,
        "JP": 148,
        "NL": 232,
        "US": 934
      }
    },
    "/robots.txt": {
      "hits": 176
    }
  },
  "queries": {},
  "weekStartDate": "2021-02-01T00:00:00+00:00"
}