{
  "errors": {
    "400": {
      "hits": 109,
      "paths": {}
    },
    "404": {
      "hits": 1188,
      "paths": {}
    }
  },
  "firstProcessedDate": "2021-05-18T06:25:28+00:00",
  "hits": 3799,
  "hitsPerCountry": {
    "-": 254,
    "CA": 216,
    "CN": 110,
    "DE": 250,
    "GB": 377,
    "JP": 101,
    "KR": 126,
    "NL": 170,
    "PT": 122,
    "US": 1696
  },
  "hitsPerLanguage": {
    "?": 3067,
    "en": 732
  },
  "lastProcessedDate": "2021-05-23T23:55:27+00:00",
  "paths": {
    "/": {
      "hits": 550
    },
    "/android-free/repository/": {
      "hits": 1634,
      "hitsPerCountry": {
        "DE": 114,
        "GB": 308,
        "JP": 100,
        "NL": 143,
        "US": 718
      }
    }
  },
  "queries": {
    "": {
      "hits": 829,
      "hitsPerCountry": {
        "CA": 122,
        "DE": 122,
        "KR": 122,
        "PT": 122,
        "US": 265
      }
    }
  },
  "weekStartDate": "2021-05-17T00:00:00+00:00"
}