{
  "errors": {
    "404": {
      "hits": 112,
      "paths": {}
    }
  },
  "firstProcessedDate": "2021-06-21T00:05:00+00:00",
  "hits": 1153,
  "hitsPerCountry": {
    "GB": 152,
    "US": 562
  },
  "lastProcessedDate": "2021-06-23T06:23:20+00:00",
  "paths": {
    "/": {
      "hits": 228
    },
    "/android-free/repository/": {
      "hits": 641,
      "hitsPerCountry": {
        "GB": 142,
        "US": 248
      }
    }
  },
  "queries": {},
  "weekStartDate": "2021-06-21T00:00:00+00:00"
}