{
  "errors": {
    "400": {
      "hits": 209,
      "paths": {}
    },
    "404": {
      "hits": 373,
      "paths": {}
    }
  },
  "firstProcessedDate": "2021-08-24T06:27:44+00:00",
  "hits": 3010,
  "hitsPerCountry": {
    "-": 226,
    "DE": 111,
    "GB": 401,
    "JP": 169,
    "NL": 231,
    "US": 1408
  },
  "lastProcessedDate": "2021-08-29T23:56:06+00:00",
  "paths": {
    "/": {
      "hits": 467
    },
    "/android-free/repository/": {
      "hits": 1626,
      "hitsPerCountry": {
        "GB": 390,
        "JP": 169,
        "NL": 209,
        "US": 611
      }
    },
    "/robots.txt": {
      "hits": 106
    }
  },
  "queries": {},
  "weekStartDate": "2021-08-23T00:00:00+00:00"
}