{
  "errors": {
    "400": {
      "hits": 915,
      "paths": {
        "": 838
      }
    },
    "404": {
      "hits": 546,
      "paths": {
        "/.well-known/pki-validation/ca3-3536cd44f2604220b692f7de52657d14.txt": 156
      }
    }
  },
  "firstProcessedDate": "2021-11-16T06:26:36+00:00",
  "hits": 3970,
  "hitsPerCountry": {
    "-": 1217,
    "GB": 431,
    "JP": 175,
    "NL": 203,
    "US": 1342
  },
  "lastProcessedDate": "2021-11-21T23:55:19+00:00",
  "paths": {
    "/": {
      "hits": 532
    },
    "/android-free/repository/": {
      "hits": 1624,
      "hitsPerCountry": {
        "GB": 386,
        "JP": 169,
        "NL": 192,
        "US": 610
      }
    },
    "/robots.txt": {
      "hits": 110
    }
  },
  "queries": {},
  "weekStartDate": "2021-11-15T00:00:00+00:00"
}