{
  "errors": {
    "400": {
      "hits": 241,
      "paths": {}
    },
    "404": {
      "hits": 843,
      "paths": {}
    }
  },
  "firstProcessedDate": "2021-10-12T06:26:19+00:00",
  "hits": 3868,
  "hitsPerCountry": {
    "-": 361,
    "DE": 320,
    "FR": 103,
    "GB": 408,
    "JP": 202,
    "NL": 207,
    "TH": 133,
    "US": 1649
  },
  "hitsPerLanguage": {
    "?": 3472,
    "en": 396
  },
  "lastProcessedDate": "2021-10-17T23:59:10+00:00",
  "paths": {
    "/": {
      "hits": 561
    },
    "/android-free/repository/": {
      "hits": 1682,
      "hitsPerCountry": {
        "GB": 394,
        "JP": 199,
        "NL": 199,
        "US": 563
      }
    },
    "/robots.txt": {
      "hits": 109
    }
  },
  "queries": {
    "": {
      "hits": 568,
      "hitsPerCountry": {
        "TH": 132,
        "US": 336
      },
      "hitsPerLanguage": {
        "?": 172,
        "en": 396
      }
    }
  },
  "weekStartDate": "2021-10-11T00:00:00+00:00"
}