{
  "errors": {
    "400": {
      "hits": 109,
      "paths": {}
    },
    "404": {
      "hits": 887,
      "paths": {}
    }
  },
  "firstProcessedDate": "2021-04-20T06:28:37+00:00",
  "hits": 3368,
  "hitsPerCountry": {
    "-": 230,
    "CA": 118,
    "DE": 230,
    "GB": 363,
    "NL": 117,
    "US": 1709
  },
  "hitsPerLanguage": {
    "?": 3002,
    "en": 366
  },
  "lastProcessedDate": "2021-04-25T23:57:33+00:00",
  "paths": {
    "/": {
      "hits": 500
    },
    "/android-free/repository/": {
      "hits": 1635,
      "hitsPerCountry": {
        "CA": 114,
        "GB": 293,
        "NL": 100,
        "US": 758
      }
    }
  },
  "queries": {
    "": {
      "hits": 449,
      "hitsPerCountry": {
        "DE": 123,
        "US": 267
      }
    }
  },
  "weekStartDate": "2021-04-19T00:00:00+00:00"
}