{
  "errors": {
    "400": {
      "hits": 276,
      "paths": {}
    },
    "404": {
      "hits": 1031,
      "paths": {}
    },
    "405": {
      "hits": 110,
      "paths": {
        "/": 110
      }
    }
  },
  "firstProcessedDate": "2021-12-07T06:27:57+00:00",
  "hits": 4000,
  "hitsPerCountry": {
    "-": 396,
    "CA": 100,
    "DE": 113,
    "GB": 381,
    "IN": 232,
    "JP": 325,
    "KR": 142,
    "NL": 218,
    "UA": 255,
    "US": 1551
  },
  "hitsPerLanguage": {
    "?": 3472,
    "en": 528
  },
  "lastProcessedDate": "2021-12-12T23:59:14+00:00",
  "paths": {
    "/": {
      "hits": 548
    },
    "/android-free/repository/": {
      "hits": 1626,
      "hitsPerCountry": {
        "GB": 360,
        "JP": 188,
        "NL": 203,
        "US": 634
      }
    }
  },
  "queries": {
    "": {
      "hits": 608,
      "hitsPerCountry": {
        "JP": 132,
        "KR": 134,
        "UA": 132,
        "US": 166
      }
    }
  },
  "weekStartDate": "2021-12-06T00:00:00+00:00"
}