{
  "errors": {
    "400": {
      "hits": 216,
      "paths": {}
    },
    "404": {
      "hits": 1026,
      "paths": {}
    }
  },
  "firstProcessedDate": "2022-03-28T00:02:51+00:00",
  "hits": 3698,
  "hitsPerCountry": {
    "-": 171,
    "CA": 102,
    "DE": 513,
    "FR": 177,
    "GB": 468,
    "NL": 152,
    "PL": 123,
    "US": 1575
  },
  "hitsPerLanguage": {
    "?": 3341,
    "en": 357
  },
  "lastProcessedDate": "2022-04-03T23:58:22+00:00",
  "paths": {
    "/": {
      "hits": 634
    },
    "/android-free/repository/": {
      "hits": 1592,
      "hitsPerCountry": {
        "DE": 100,
        "GB": 209,
        "NL": 143,
        "US": 849
      }
    }
  },
  "queries": {
    "": {
      "hits": 524,
      "hitsPerCountry": {
        "DE": 136,
        "FR": 119,
        "PL": 119
      },
      "hitsPerLanguage": {
        "?": 167,
        "en": 357
      }
    }
  },
  "weekStartDate": "2022-03-28T00:00:00+00:00"
}