{
  "errors": {
    "400": {
      "hits": 551,
      "paths": {
        "": 458
      }
    },
    "404": {
      "hits": 930,
      "paths": {}
    }
  },
  "firstProcessedDate": "2022-02-22T06:30:38+00:00",
  "hits": 3910,
  "hitsPerCountry": {
    "-": 627,
    "BE": 132,
    "DE": 203,
    "GB": 294,
    "JP": 196,
    "NL": 239,
    "US": 1608,
    "VN": 133
  },
  "hitsPerLanguage": {
    "?": 3513,
    "en": 396
  },
  "lastProcessedDate": "2022-02-27T23:59:24+00:00",
  "paths": {
    "/": {
      "hits": 533,
      "hitsPerCountry": {
        "-": 102,
        "US": 323
      }
    },
    "/android-free/repository/": {
      "hits": 1622,
      "hitsPerCountry": {
        "GB": 274,
        "JP": 189,
        "NL": 230,
        "US": 700
      }
    },
    "/robots.txt": {
      "hits": 100
    }
  },
  "queries": {
    "": {
      "hits": 485,
      "hitsPerCountry": {
        "BE": 132,
        "US": 149,
        "VN": 133
      }
    }
  },
  "weekStartDate": "2022-02-21T00:00:00+00:00"
}