{
  "errors": {
    "400": {
      "hits": 209,
      "paths": {}
    },
    "404": {
      "hits": 1382,
      "paths": {}
    }
  },
  "firstProcessedDate": "2022-03-16T06:26:59+00:00",
  "hits": 3490,
  "hitsPerCountry": {
    "-": 190,
    "AU": 132,
    "CA": 102,
    "DE": 363,
    "FR": 175,
    "GB": 227,
    "JP": 209,
    "NL": 296,
    "US": 1465
  },
  "hitsPerLanguage": {
    "?": 2566,
    "en": 924
  },
  "lastProcessedDate": "2022-03-20T23:58:24+00:00",
  "paths": {
    "/": {
      "hits": 443
    },
    "/android-free/repository/": {
      "hits": 1353,
      "hitsPerCountry": {
        "GB": 203,
        "US": 719
      }
    }
  },
  "queries": {
    "": {
      "hits": 1047,
      "hitsPerCountry": {
        "AU": 132,
        "DE": 265,
        "FR": 132,
        "JP": 134,
        "NL": 142,
        "US": 153
      },
      "hitsPerLanguage": {
        "?": 123,
        "en": 924
      }
    }
  },
  "weekStartDate": "2022-03-14T00:00:00+00:00"
}